<?xml version="1.0" encoding="UTF-8" standalone="no"?>
<!-- Created with Inkscape (http://www.inkscape.org/) -->

<svg
   xmlns:dc="http://purl.org/dc/elements/1.1/"
   xmlns:cc="http://creativecommons.org/ns#"
   xmlns:rdf="http://www.w3.org/1999/02/22-rdf-syntax-ns#"
   xmlns:svg="http://www.w3.org/2000/svg"
   xmlns="http://www.w3.org/2000/svg"
   xmlns:sodipodi="http://sodipodi.sourceforge.net/DTD/sodipodi-0.dtd"
   xmlns:inkscape="http://www.inkscape.org/namespaces/inkscape"
   version="1.1"
   width="32"
   height="32"
   id="svg9247"
   inkscape:version="0.48.4 r9939"
   sodipodi:docname="mageia.svg"
   inkscape:export-filename="C:\Users\Julian Richen\Desktop\gol\assets\template\images\distros\mageia.png"
   inkscape:export-xdpi="90"
   inkscape:export-ydpi="90">
  <sodipodi:namedview
     pagecolor="#ffffff"
     bordercolor="#666666"
     borderopacity="1"
     objecttolerance="10"
     gridtolerance="10"
     guidetolerance="10"
     inkscape:pageopacity="0"
     inkscape:pageshadow="2"
     inkscape:window-width="1920"
     inkscape:window-height="1018"
     id="namedview77"
     showgrid="false"
     inkscape:zoom="8.3564082"
     inkscape:cx="9.6939235"
     inkscape:cy="14.126956"
     inkscape:window-x="1912"
     inkscape:window-y="-8"
     inkscape:window-maximized="1"
     inkscape:current-layer="svg9247" />
  <defs
     id="defs9249">
    <linearGradient
       x1="-51.767601"
       y1="235.84129"
       x2="-51.767601"
       y2="253.84129"
       id="SVGID_12_"
       gradientUnits="userSpaceOnUse"
       gradientTransform="matrix(1,0,0,-1,-0.80292847,1022.6884)">
      <stop
         id="stop83"
         style="stop-color:#2397d4;stop-opacity:1"
         offset="0" />
      <stop
         id="stop85"
         style="stop-color:#65e7ff;stop-opacity:1"
         offset="1" />
    </linearGradient>
    <linearGradient
       x1="-75.768997"
       y1="249.84129"
       x2="-75.768997"
       y2="265.84329"
       id="SVGID_11_"
       gradientUnits="userSpaceOnUse"
       gradientTransform="matrix(1,0,0,-1,-0.80292847,1022.6884)">
      <stop
         id="stop76"
         style="stop-color:#2397d4;stop-opacity:1"
         offset="0" />
      <stop
         id="stop78"
         style="stop-color:#65e7ff;stop-opacity:1"
         offset="1" />
    </linearGradient>
    <linearGradient
       x1="-48.767601"
       y1="198.83839"
       x2="-48.767601"
       y2="220.8394"
       id="SVGID_10_"
       gradientUnits="userSpaceOnUse"
       gradientTransform="matrix(1,0,0,-1,-0.80292847,1022.6884)">
      <stop
         id="stop69"
         style="stop-color:#2397d4;stop-opacity:1"
         offset="0" />
      <stop
         id="stop71"
         style="stop-color:#65e7ff;stop-opacity:1"
         offset="1" />
    </linearGradient>
    <linearGradient
       x1="-70.767601"
       y1="217.8394"
       x2="-70.767601"
       y2="237.84129"
       id="SVGID_9_"
       gradientUnits="userSpaceOnUse"
       gradientTransform="matrix(1,0,0,-1,-0.80292847,1022.6884)">
      <stop
         id="stop62"
         style="stop-color:#2397d4;stop-opacity:1"
         offset="0" />
      <stop
         id="stop64"
         style="stop-color:#65e7ff;stop-opacity:1"
         offset="1" />
    </linearGradient>
    <linearGradient
       x1="-84.767601"
       y1="190.83839"
       x2="-84.767601"
       y2="214.8394"
       id="SVGID_8_"
       gradientUnits="userSpaceOnUse"
       gradientTransform="matrix(1,0,0,-1,-0.80292847,1022.6884)">
      <stop
         id="stop55"
         style="stop-color:#2397d4;stop-opacity:1"
         offset="0" />
      <stop
         id="stop57"
         style="stop-color:#65e7ff;stop-opacity:1"
         offset="1" />
    </linearGradient>
    <linearGradient
       x1="-68.768997"
       y1="67.834"
       x2="-68.769096"
       y2="193.83791"
       id="SVGID_7_"
       gradientUnits="userSpaceOnUse"
       gradientTransform="matrix(1,0,0,-1,214.5,339.5771)">
      <stop
         id="stop48"
         style="stop-color:#252d42;stop-opacity:1"
         offset="0" />
      <stop
         id="stop50"
         style="stop-color:#485e82;stop-opacity:1"
         offset="1" />
    </linearGradient>
    <linearGradient
       x1="421.94781"
       y1="169.6572"
       x2="421.94781"
       y2="191.8867"
       id="SVGID_13_"
       gradientUnits="userSpaceOnUse"
       gradientTransform="matrix(1.2857964,0,0,-1.2857964,258.25103,1168.7191)">
      <stop
         id="stop4379"
         style="stop-color:#2397d4;stop-opacity:1"
         offset="0" />
      <stop
         id="stop4381"
         style="stop-color:#65e7ff;stop-opacity:1"
         offset="1" />
    </linearGradient>
    <linearGradient
       x1="-51.767601"
       y1="235.84129"
       x2="-51.767601"
       y2="253.84129"
       id="SVGID_12_-6"
       gradientUnits="userSpaceOnUse"
       gradientTransform="matrix(1.2857964,0,0,-1.2857964,258.25103,1168.7191)">
      <stop
         id="stop4372"
         style="stop-color:#2397d4;stop-opacity:1"
         offset="0" />
      <stop
         id="stop4374"
         style="stop-color:#65e7ff;stop-opacity:1"
         offset="1" />
    </linearGradient>
    <linearGradient
       x1="-75.768997"
       y1="249.84129"
       x2="-75.768997"
       y2="265.84329"
       id="SVGID_11_-6"
       gradientUnits="userSpaceOnUse"
       gradientTransform="matrix(1.2857964,0,0,-1.2857964,258.25103,1168.7191)">
      <stop
         id="stop4365"
         style="stop-color:#2397d4;stop-opacity:1"
         offset="0" />
      <stop
         id="stop4367"
         style="stop-color:#65e7ff;stop-opacity:1"
         offset="1" />
    </linearGradient>
    <linearGradient
       x1="-48.767601"
       y1="198.83839"
       x2="-48.767601"
       y2="220.8394"
       id="SVGID_10_-9"
       gradientUnits="userSpaceOnUse"
       gradientTransform="matrix(1.2857964,0,0,-1.2857964,258.25103,1168.7191)">
      <stop
         id="stop4358"
         style="stop-color:#2397d4;stop-opacity:1"
         offset="0" />
      <stop
         id="stop4360"
         style="stop-color:#65e7ff;stop-opacity:1"
         offset="1" />
    </linearGradient>
    <linearGradient
       x1="-70.767601"
       y1="217.8394"
       x2="-70.767601"
       y2="237.84129"
       id="SVGID_9_-9"
       gradientUnits="userSpaceOnUse"
       gradientTransform="matrix(1.2857964,0,0,-1.2857964,258.25103,1168.7191)">
      <stop
         id="stop4351"
         style="stop-color:#2397d4;stop-opacity:1"
         offset="0" />
      <stop
         id="stop4353"
         style="stop-color:#65e7ff;stop-opacity:1"
         offset="1" />
    </linearGradient>
    <linearGradient
       x1="-84.767601"
       y1="190.83839"
       x2="-84.767601"
       y2="214.8394"
       id="SVGID_8_-1"
       gradientUnits="userSpaceOnUse"
       gradientTransform="matrix(1.2857964,0,0,-1.2857964,258.25103,1168.7191)">
      <stop
         id="stop4344"
         style="stop-color:#2397d4;stop-opacity:1"
         offset="0" />
      <stop
         id="stop4346"
         style="stop-color:#65e7ff;stop-opacity:1"
         offset="1" />
    </linearGradient>
    <linearGradient
       x1="-68.768997"
       y1="67.834"
       x2="-68.769096"
       y2="193.83791"
       id="SVGID_7_-5"
       gradientUnits="userSpaceOnUse"
       gradientTransform="matrix(1,0,0,-1,214.5,339.5771)">
      <stop
         id="stop4337"
         style="stop-color:#252d42;stop-opacity:1"
         offset="0" />
      <stop
         id="stop4339"
         style="stop-color:#485e82;stop-opacity:1"
         offset="1" />
    </linearGradient>
    <linearGradient
       x1="421.94781"
       y1="87.412102"
       x2="421.94781"
       y2="161.147"
       id="SVGID_6_"
       gradientUnits="userSpaceOnUse"
       gradientTransform="matrix(1.2857964,0,0,-1.2857964,258.25103,1168.7191)">
      <stop
         id="stop4328"
         style="stop-color:#252d42;stop-opacity:1"
         offset="0" />
      <stop
         id="stop4330"
         style="stop-color:#485e82;stop-opacity:1"
         offset="1" />
    </linearGradient>
    <linearGradient
       x1="89.801804"
       y1="87.414101"
       x2="89.801804"
       y2="161.1479"
       id="SVGID_5_"
       gradientUnits="userSpaceOnUse"
       gradientTransform="matrix(1.2857964,0,0,-1.2857964,258.25103,1168.7191)">
      <stop
         id="stop4321"
         style="stop-color:#252d42;stop-opacity:1"
         offset="0" />
      <stop
         id="stop4323"
         style="stop-color:#485e82;stop-opacity:1"
         offset="1" />
    </linearGradient>
    <linearGradient
       x1="363.0806"
       y1="87.414101"
       x2="363.0806"
       y2="161.14841"
       id="SVGID_4_"
       gradientUnits="userSpaceOnUse"
       gradientTransform="matrix(1.2857964,0,0,-1.2857964,258.25103,1168.7191)">
      <stop
         id="stop4314"
         style="stop-color:#252d42;stop-opacity:1"
         offset="0" />
      <stop
         id="stop4316"
         style="stop-color:#485e82;stop-opacity:1"
         offset="1" />
    </linearGradient>
    <linearGradient
       x1="481.40869"
       y1="87.414101"
       x2="481.40869"
       y2="161.147"
       id="SVGID_3_"
       gradientUnits="userSpaceOnUse"
       gradientTransform="matrix(1.2857964,0,0,-1.2857964,258.25103,1168.7191)">
      <stop
         id="stop4307"
         style="stop-color:#252d42;stop-opacity:1"
         offset="0" />
      <stop
         id="stop4309"
         style="stop-color:#485e82;stop-opacity:1"
         offset="1" />
    </linearGradient>
    <linearGradient
       x1="191.85789"
       y1="87.414101"
       x2="191.85789"
       y2="161.147"
       id="SVGID_2_"
       gradientUnits="userSpaceOnUse"
       gradientTransform="matrix(1.2857964,0,0,-1.2857964,258.25103,1168.7191)">
      <stop
         id="stop4300"
         style="stop-color:#252d42;stop-opacity:1"
         offset="0" />
      <stop
         id="stop4302"
         style="stop-color:#485e82;stop-opacity:1"
         offset="1" />
    </linearGradient>
    <linearGradient
       x1="277.86081"
       y1="84.733398"
       x2="277.86081"
       y2="162.6368"
       id="SVGID_1_"
       gradientUnits="userSpaceOnUse"
       gradientTransform="matrix(1,0,0,-1,214.5,339.5771)">
      <stop
         id="stop4293"
         style="stop-color:#252d42;stop-opacity:1"
         offset="0" />
      <stop
         id="stop4295"
         style="stop-color:#485e82;stop-opacity:1"
         offset="1" />
    </linearGradient>
  </defs>
  <metadata
     id="metadata9252">
    <rdf:RDF>
      <cc:Work
         rdf:about="">
        <dc:format>image/svg+xml</dc:format>
        <dc:type
           rdf:resource="http://purl.org/dc/dcmitype/StillImage" />
        <dc:title></dc:title>
      </cc:Work>
    </rdf:RDF>
  </metadata>
  <g
     id="g5423"
     transform="matrix(0.14959463,0,0,0.14959463,-12.902885,-76.946605)"
     style="fill:#444444;fill-opacity:1">
    <path
       inkscape:connector-curvature="0"
       style="fill:#444444;fill-opacity:1"
       id="path3042-0-6-4"
       d="m 177.89056,597.12767 h -0.01 c -6.6729,0 -12.10712,-5.42671 -12.11419,-12.09501 -0.01,-6.69051 5.42514,-12.12528 12.1041,-12.13236 6.68298,0 12.1162,5.42671 12.12426,12.09501 0,6.69052 -5.42512,12.1263 -12.10408,12.13337 h 0 z" />
    <path
       inkscape:connector-curvature="0"
       style="fill:#444444;fill-opacity:1"
       id="path3056-6-4-1"
       d="m 210.60812,588.24494 c -6.23094,0 -11.30246,-5.06615 -11.30657,-11.29167 -0.01,-6.24198 5.06123,-11.31635 11.2963,-11.32148 6.23916,0 11.31068,5.0651 11.31683,11.29063 0,6.24197 -5.06224,11.31635 -11.29628,11.32252 h -0.01 z" />
    <path
       inkscape:connector-curvature="0"
       style="fill:#444444;fill-opacity:1"
       id="path4104"
       transform="matrix(1.4421651,0,0,1.4421651,215.7232,578.60266)"
       d="m -10,-15.700835 a 7,7 0 1 1 -14,0 7,7 0 1 1 14,0 z" />
    <path
       inkscape:connector-curvature="0"
       style="fill:#444444;fill-opacity:1"
       id="path4106"
       transform="matrix(0.80761247,0,0,0.80761247,140.73061,552.34319)"
       d="m 94,-16.522263 a 11.5,11.5 0 1 1 -23,0 11.5,11.5 0 1 1 23,0 z" />
    <path
       inkscape:connector-curvature="0"
       style="fill:#444444;fill-opacity:1"
       id="path4132"
       transform="matrix(0.76915473,0,0,0.76915473,187.18756,551.30398)"
       d="m 11,-37.522263 a 10.5,10.5 0 1 1 -21,0 10.5,10.5 0 1 1 21,0 z" />
  </g>
  <path
     inkscape:connector-curvature="0"
     style="font-size:medium;font-style:normal;font-variant:normal;font-weight:normal;font-stretch:normal;text-indent:0;text-align:start;text-decoration:none;line-height:normal;letter-spacing:normal;word-spacing:normal;text-transform:none;direction:ltr;block-progression:tb;writing-mode:lr-tb;text-anchor:start;baseline-shift:baseline;color:#000000;fill:#222222;fill-opacity:1;stroke:none;stroke-width:14;marker:none;visibility:visible;display:inline;overflow:visible;enable-background:accumulate;font-family:Sans;-inkscape-font-specification:Sans"
     id="path3347-1"
     d="M 8.6587647,14.013053 C 7.095441,16.039384 5.8275652,18.31854 5.8275652,21.079592 5.8275652,27.064326 10.369023,32 16,32 c 5.630808,0 10.172435,-4.935649 10.172435,-10.920408 0,-2.761598 -1.269892,-4.968336 -2.921609,-7.066536 -0.619357,-0.649934 -1.513534,-0.553297 -2.164483,-0.137412 -1.904782,0.985612 -2.932966,1.379403 -5.086343,1.369757 -2.082659,-0.0093 -3.176892,-0.349456 -5.081779,-1.387842 -0.650949,-0.3978 -1.6401001,-0.49444 -2.2594563,0.155494 z m 1.3574503,1.681132 c 1.974392,1.091673 3.735245,1.645541 5.983785,1.645541 2.250442,0 4.008379,-0.553876 5.983785,-1.645541 1.077904,1.519859 2.094325,3.40446 2.094325,5.385407 0,4.906897 -3.616496,8.826083 -8.07811,8.826083 -4.461827,0 -8.2277046,-3.919161 -8.2277046,-8.826083 0,-1.978332 1.1636652,-3.864359 2.2439196,-5.385407 z" />
</svg>
