<?xml version="1.0" encoding="UTF-8" standalone="no"?>
<!-- Generator: Adobe Illustrator 14.0.0, SVG Export Plug-In  -->

<svg
   xmlns:dc="http://purl.org/dc/elements/1.1/"
   xmlns:cc="http://creativecommons.org/ns#"
   xmlns:rdf="http://www.w3.org/1999/02/22-rdf-syntax-ns#"
   xmlns:svg="http://www.w3.org/2000/svg"
   xmlns="http://www.w3.org/2000/svg"
   xmlns:xlink="http://www.w3.org/1999/xlink"
   xmlns:sodipodi="http://sodipodi.sourceforge.net/DTD/sodipodi-0.dtd"
   xmlns:inkscape="http://www.inkscape.org/namespaces/inkscape"
   version="1.1"
   x="0px"
   y="0px"
   width="32"
   height="32"
   viewBox="-0.866 -0.866 32 32"
   enable-background="new -0.866 -0.866 285 285"
   xml:space="preserve"
   id="svg2"
   inkscape:version="0.91 r13725"
   sodipodi:docname="ubuntu-gnome.svg"
   inkscape:export-filename="C:\Users\Julian Richen\Desktop\gol\assets\template\images\distros\ubuntu.png"
   inkscape:export-xdpi="90"
   inkscape:export-ydpi="90"><metadata
     id="metadata12"><rdf:RDF><cc:Work
         rdf:about=""><dc:format>image/svg+xml</dc:format><dc:type
           rdf:resource="http://purl.org/dc/dcmitype/StillImage" /><dc:title></dc:title></cc:Work></rdf:RDF></metadata><sodipodi:namedview
     pagecolor="#ffffff"
     bordercolor="#666666"
     borderopacity="1"
     objecttolerance="10"
     gridtolerance="10"
     guidetolerance="10"
     inkscape:pageopacity="0"
     inkscape:pageshadow="2"
     inkscape:window-width="1920"
     inkscape:window-height="1018"
     id="namedview10"
     showgrid="false"
     inkscape:zoom="6.6245614"
     inkscape:cx="59.708535"
     inkscape:cy="15.105597"
     inkscape:window-x="1912"
     inkscape:window-y="-8"
     inkscape:window-maximized="1"
     inkscape:current-layer="svg2" /><defs
     id="defs4"><linearGradient
       y2="382.5"
       x2="990"
       y1="382.5"
       x1="601.20001"
       gradientTransform="matrix(-0.511281,0,0,0.42455,1578.612,-1.981893e-7)"
       gradientUnits="userSpaceOnUse"
       id="linearGradient63059"
       xlink:href="#linearGradient7336"
       inkscape:collect="always" /><linearGradient
       y2="360"
       x2="990"
       y1="360"
       x1="380.92273"
       gradientTransform="matrix(-0.501192,0,0,0.42455,1568.625,-1.981893e-7)"
       gradientUnits="userSpaceOnUse"
       id="linearGradient63057"
       xlink:href="#linearGradient8221"
       inkscape:collect="always" /><linearGradient
       id="linearGradient7336"><stop
         id="stop7338"
         offset="0"
         style="stop-color:#ffffff;stop-opacity:1;" /><stop
         id="stop7340"
         offset="1"
         style="stop-color:#6fc1ff;stop-opacity:0;" /></linearGradient><linearGradient
       id="linearGradient8221"><stop
         id="stop8223"
         offset="0"
         style="stop-color:#6fc1ff;stop-opacity:1;" /><stop
         id="stop8225"
         offset="1"
         style="stop-color:#6fc1ff;stop-opacity:0;" /></linearGradient><linearGradient
       id="linearGradient57798"><stop
         id="stop57800"
         offset="0"
         style="stop-color:#ababab;stop-opacity:1;" /><stop
         id="stop57802"
         offset="1"
         style="stop-color:#000000;stop-opacity:0;" /></linearGradient><linearGradient
       id="linearGradient57806"><stop
         style="stop-color:#ffffff;stop-opacity:1;"
         offset="0"
         id="stop57808" /><stop
         style="stop-color:#96bcd8;stop-opacity:0"
         offset="1"
         id="stop57810" /></linearGradient><linearGradient
       id="linearGradient58210"><stop
         id="stop58212"
         offset="0"
         style="stop-color:#30a5ff;stop-opacity:1;" /><stop
         id="stop58214"
         offset="1"
         style="stop-color:#a6d9ff;stop-opacity:1;" /></linearGradient><linearGradient
       id="linearGradient22774"><stop
         id="stop22776"
         offset="0"
         style="stop-color:#dd9144;stop-opacity:1;" /><stop
         style="stop-color:#b06f2e;stop-opacity:1;"
         offset="0"
         id="stop22784" /><stop
         style="stop-color:#633406;stop-opacity:1;"
         offset="1"
         id="stop22782" /></linearGradient><linearGradient
       id="linearGradient22786"><stop
         id="stop22788"
         offset="0"
         style="stop-color:#737373;stop-opacity:1;" /><stop
         id="stop22790"
         offset="1"
         style="stop-color:#cdcdcd;stop-opacity:1;" /></linearGradient><linearGradient
       id="linearGradient24542"><stop
         id="stop24544"
         offset="0"
         style="stop-color:#7c7c7c;stop-opacity:1;" /><stop
         id="stop24546"
         offset="1"
         style="stop-color:#323232;stop-opacity:1;" /></linearGradient><linearGradient
       id="linearGradient30914"><stop
         id="stop30916"
         offset="0"
         style="stop-color:#545f00;stop-opacity:1;" /><stop
         id="stop30918"
         offset="1"
         style="stop-color:#000000;stop-opacity:1;" /></linearGradient><linearGradient
       id="linearGradient30922"><stop
         id="stop30924"
         offset="0"
         style="stop-color:#323232;stop-opacity:1;" /><stop
         id="stop30926"
         offset="1"
         style="stop-color:#ffffff;stop-opacity:1;" /></linearGradient><linearGradient
       id="linearGradient30930"><stop
         id="stop30932"
         offset="0"
         style="stop-color:#7c7c7c;stop-opacity:1;" /><stop
         id="stop30934"
         offset="1"
         style="stop-color:#ffffff;stop-opacity:1;" /></linearGradient><linearGradient
       id="linearGradient30944"><stop
         id="stop30946"
         offset="0"
         style="stop-color:#ffffff;stop-opacity:1;" /><stop
         id="stop30948"
         offset="1"
         style="stop-color:#7e7e7e;stop-opacity:1;" /></linearGradient><linearGradient
       id="linearGradient6016"><stop
         id="stop6018"
         offset="0"
         style="stop-color:#265ba7;stop-opacity:1;" /><stop
         id="stop6020"
         offset="1"
         style="stop-color:#1c4177;stop-opacity:1;" /></linearGradient><inkscape:perspective
       sodipodi:type="inkscape:persp3d"
       inkscape:vp_x="0 : 0.5 : 1"
       inkscape:vp_y="0 : 1000 : 0"
       inkscape:vp_z="1 : 0.5 : 1"
       inkscape:persp3d-origin="0.5 : 0.33333333 : 1"
       id="perspective2861" /><inkscape:perspective
       sodipodi:type="inkscape:persp3d"
       inkscape:vp_x="0 : 0.5 : 1"
       inkscape:vp_y="0 : 1000 : 0"
       inkscape:vp_z="1 : 0.5 : 1"
       inkscape:persp3d-origin="0.5 : 0.33333333 : 1"
       id="perspective3415" /><inkscape:perspective
       sodipodi:type="inkscape:persp3d"
       inkscape:vp_x="0 : 0.5 : 1"
       inkscape:vp_y="0 : 1000 : 0"
       inkscape:vp_z="1 : 0.5 : 1"
       inkscape:persp3d-origin="0.5 : 0.33333333 : 1"
       id="perspective3135" /><inkscape:perspective
       id="perspective29"
       inkscape:persp3d-origin="389.8085 : 56.692998 : 1"
       inkscape:vp_z="779.617 : 85.039497 : 1"
       inkscape:vp_y="0 : 1000 : 0"
       inkscape:vp_x="0 : 85.039497 : 1"
       sodipodi:type="inkscape:persp3d" /><inkscape:perspective
       sodipodi:type="inkscape:persp3d"
       inkscape:vp_x="0 : 85.039497 : 1"
       inkscape:vp_y="0 : 1000 : 0"
       inkscape:vp_z="779.617 : 85.039497 : 1"
       inkscape:persp3d-origin="389.8085 : 56.692998 : 1"
       id="perspective29-6" /><inkscape:perspective
       id="perspective3135-3"
       inkscape:persp3d-origin="0.5 : 0.33333333 : 1"
       inkscape:vp_z="1 : 0.5 : 1"
       inkscape:vp_y="0 : 1000 : 0"
       inkscape:vp_x="0 : 0.5 : 1"
       sodipodi:type="inkscape:persp3d" /><inkscape:perspective
       id="perspective3415-6"
       inkscape:persp3d-origin="0.5 : 0.33333333 : 1"
       inkscape:vp_z="1 : 0.5 : 1"
       inkscape:vp_y="0 : 1000 : 0"
       inkscape:vp_x="0 : 0.5 : 1"
       sodipodi:type="inkscape:persp3d" /><inkscape:perspective
       id="perspective2861-4"
       inkscape:persp3d-origin="0.5 : 0.33333333 : 1"
       inkscape:vp_z="1 : 0.5 : 1"
       inkscape:vp_y="0 : 1000 : 0"
       inkscape:vp_x="0 : 0.5 : 1"
       sodipodi:type="inkscape:persp3d" /><clipPath
       clipPathUnits="userSpaceOnUse"
       id="clipPath3743"><rect
         style="color:#000000;fill:#ffffff;fill-opacity:1;fill-rule:nonzero;stroke:none;stroke-width:1;marker:none;visibility:visible;display:inline;overflow:visible;enable-background:accumulate"
         id="rect3745"
         width="456.79099"
         height="395.27271"
         x="-87.687256"
         y="820.19275" /></clipPath><inkscape:perspective
       sodipodi:type="inkscape:persp3d"
       inkscape:vp_x="0 : 0.5 : 1"
       inkscape:vp_y="0 : 1000 : 0"
       inkscape:vp_z="1 : 0.5 : 1"
       inkscape:persp3d-origin="0.5 : 0.33333333 : 1"
       id="perspective2861-4-7" /><inkscape:perspective
       sodipodi:type="inkscape:persp3d"
       inkscape:vp_x="0 : 0.5 : 1"
       inkscape:vp_y="0 : 1000 : 0"
       inkscape:vp_z="1 : 0.5 : 1"
       inkscape:persp3d-origin="0.5 : 0.33333333 : 1"
       id="perspective3415-6-9" /><inkscape:perspective
       sodipodi:type="inkscape:persp3d"
       inkscape:vp_x="0 : 0.5 : 1"
       inkscape:vp_y="0 : 1000 : 0"
       inkscape:vp_z="1 : 0.5 : 1"
       inkscape:persp3d-origin="0.5 : 0.33333333 : 1"
       id="perspective3135-3-4" /><inkscape:perspective
       id="perspective29-6-1"
       inkscape:persp3d-origin="389.8085 : 56.692998 : 1"
       inkscape:vp_z="779.617 : 85.039497 : 1"
       inkscape:vp_y="0 : 1000 : 0"
       inkscape:vp_x="0 : 85.039497 : 1"
       sodipodi:type="inkscape:persp3d" /><inkscape:perspective
       sodipodi:type="inkscape:persp3d"
       inkscape:vp_x="0 : 85.039497 : 1"
       inkscape:vp_y="0 : 1000 : 0"
       inkscape:vp_z="779.617 : 85.039497 : 1"
       inkscape:persp3d-origin="389.8085 : 56.692998 : 1"
       id="perspective29-69" /><inkscape:perspective
       id="perspective3135-1"
       inkscape:persp3d-origin="0.5 : 0.33333333 : 1"
       inkscape:vp_z="1 : 0.5 : 1"
       inkscape:vp_y="0 : 1000 : 0"
       inkscape:vp_x="0 : 0.5 : 1"
       sodipodi:type="inkscape:persp3d" /><inkscape:perspective
       id="perspective3415-3"
       inkscape:persp3d-origin="0.5 : 0.33333333 : 1"
       inkscape:vp_z="1 : 0.5 : 1"
       inkscape:vp_y="0 : 1000 : 0"
       inkscape:vp_x="0 : 0.5 : 1"
       sodipodi:type="inkscape:persp3d" /><inkscape:perspective
       id="perspective2861-9"
       inkscape:persp3d-origin="0.5 : 0.33333333 : 1"
       inkscape:vp_z="1 : 0.5 : 1"
       inkscape:vp_y="0 : 1000 : 0"
       inkscape:vp_x="0 : 0.5 : 1"
       sodipodi:type="inkscape:persp3d" /></defs><g
     transform="matrix(0.39109099,0,0,0.39109099,-181.61235,352.67868)"
     inkscape:label="Roundel"
     id="layer3"><g
       inkscape:export-ydpi="300"
       inkscape:export-xdpi="300"
       inkscape:export-filename="/home/patrik/Documents/UCN/Projects/2nd year/Final exam/Final product/Roundel.png"
       transform="matrix(3.5217342,0,0,3.5217342,-7997.2999,-3141.3471)"
       id="g3694" /></g><g
     id="g4342"
     transform="matrix(0.49277017,0,0,0.49277017,-25.512197,6.5720121)"><circle
       r="32.469498"
       cy="17.375216"
       cx="82.4851"
       id="path4807"
       style="color:#000000;display:inline;overflow:visible;visibility:visible;opacity:1;fill:#222222;fill-opacity:1;fill-rule:nonzero;stroke:none;stroke-width:0.80000001;stroke-linecap:round;stroke-linejoin:round;stroke-miterlimit:4;stroke-dasharray:none;stroke-dashoffset:0;stroke-opacity:1;marker:none;enable-background:accumulate" /><g
       style="fill:#ffffff"
       transform="matrix(0.19841451,0,0,0.19841451,-48.114988,-85.336946)"
       inkscape:label="Roundel"
       id="g4798"><g
         style="fill:#ffffff"
         inkscape:export-ydpi="300"
         inkscape:export-xdpi="300"
         inkscape:export-filename="/home/patrik/Documents/UCN/Projects/2nd year/Final exam/Final product/Roundel.png"
         transform="matrix(3.5217342,0,0,3.5217342,-7997.2999,-3141.3471)"
         id="g4800"><path
           inkscape:connector-curvature="0"
           id="circle4802"
           d="m 574.38281,462.98828 c -1.87508,1.125 -4.26573,2.71872 -7.17187,4.78125 -2.85959,2.01571 -5.90627,4.64064 -9.14063,7.875 -2.81248,2.81249 -4.78139,5.57819 -5.90625,8.29688 -1.07858,2.76579 -1.45307,5.48439 -1.125,8.15625 0.32822,2.67186 1.24215,5.27345 2.74219,7.80468 1.54687,2.57821 3.56261,5.10948 6.04687,7.59375 l 20.53126,20.53125 6.53906,-6.53906 -19.125,-19.125 c -4.45329,-4.45328 -6.93746,-8.34372 -7.45313,-11.67187 -0.51553,-3.32829 0.8906,-6.65623 4.21875,-9.98438 0.70312,-0.70326 1.45322,-1.40611 2.25,-2.10937 0.79678,-0.70326 1.54702,-1.35929 2.25,-1.96875 0.74995,-0.5625 1.40626,-1.07804 1.96875,-1.54688 0.65616,-0.46884 1.14863,-0.77316 1.47657,-0.91406 l 42.0664,42.06641 6.53906,-6.53907 -46.70703,-46.70703 z m -2.03515,20.77734 -6.54102,6.53907 30.86914,30.86719 c -0.14076,0.32807 -0.44508,0.82054 -0.91406,1.47656 -0.46884,0.56249 -0.9841,1.21894 -1.54688,1.96875 -0.6096,0.70298 -1.26549,1.45322 -1.96875,2.25 -0.70326,0.79678 -1.40625,1.54688 -2.10937,2.25 -3.32815,3.32815 -6.65622,4.73442 -9.98438,4.21875 -3.32815,-0.51553 -7.21873,-2.99998 -11.67187,-7.45313 l -19.125,-19.125 -6.53906,6.53907 20.53125,20.53124 c 2.4844,2.48441 5.01568,4.50001 7.59375,6.04688 2.53137,1.50004 5.13282,2.41411 7.80468,2.74219 2.67186,0.32807 5.3906,-0.0468 8.15625,-1.125 2.71883,-1.125 5.48426,-3.09377 8.29688,-5.90625 3.23436,-3.23436 5.85943,-6.28131 7.875,-9.14063 2.0624,-2.90628 3.65625,-5.29693 4.78125,-7.17187 l -35.50781,-35.50782 z"
           style="fill:#ffffff;fill-opacity:1"
           transform="matrix(0.72604847,0,0,0.72604847,2038.0872,672.87015)" /></g></g></g></svg>